A: T, B, Y, W, F, U, V, I, L, G, C, S, M, P, Z, H, R, D, N, O, E, J, Q, X, K
B: X, A, S, J, T, Z, O, V, D, L, E, Q, H, Y, R, G, W, N, C, U, M, I, K, F, P
C: S, H, V, E, Z, I, M, F, U, N, A, X, D, J, W, O, K, R, B, P, Q, L, T, G, Y
D: F, Y, J, N, X, M, T, P, B, Q, G, W, C, U, S, L, H, A, E, K, I, Z, V, O, R
E: R, I, P, C, Q, Y, H, M, K, F, B, J, N, W, T, V, G, L, D, X, A, O, U, Z, S
F: D, S, L, P, A, H, Q, C, R, E, V, N, X, O, G, K, Z, J, M, W, T, U, Y, B, I
G: V, M, H, Q, P, L, I, Z, N, A, D, Y, O, R, F, B, E, W, U, J, S, K, X, C, T
H: Y, C, G, T, N, F, E, S, O, R, W, V, B, M, K, A, D, I, X, L, P, Q, J, U, Z
I: J, E, W, X, V, C, G, A, Q, M, O, U, P, S, Y, R, N, H, K, Z, D, B, L, T, F
J: I, W, D, B, L, T, S, U, Z, K, P, E, R, C, X, M, Q, F, V, G, N, A, H, Y, O
K: W, Z, R, O, S, X, P, N, E, J, Q, T, Y, L, H, F, C, V, I, D, U, G, B, M, A
L: Q, O, F, U, J, G, W, X, A, B, Y, R, S, K, V, D, M, E, T, H, Z, C, I, P, N
M: Z, G, N, Y, U, D, C, E, S, I, T, P, A, H, O, J, L, Q, F, V, B, W, R, K, X
N: O, U, M, D, H, R, Z, K, G, C, X, F, E, T, P, Y, I, B, A, Q, J, S, W, V, L
O: N, L, Q, K, Y, V, B, W, H, P, I, Z, G, F, M, C, T, U, R, A, X, E, S, D, J
P: U, V, E, F, G, Q, K, D, Y, O, J, M, I, A, N, X, S, T, W, C, H, R, Z, L, B
Q: L, R, O, G, E, P, F, Y, I, D, K, B, Z, X, U, T, J, M, S, N, C, H, A, W, V
R: E, Q, K, Z, W, N, X, T, F, H, U, L, J, G, B, I, A, C, O, Y, V, P, M, S, D
S: C, F, B, V, K, W, J, H, M, X, Z, A, L, I, D, U, P, Y, Q, T, G, N, O, R, E
T: A, X, Z, H, B, J, D, R, V, W, M, K, U, N, E, Q, O, P, L, S, F, Y, C, I, G
U: P, N, X, L, M, A, Y, J, C, Z, R, I, T, D, Q, S, V, O, G, B, K, F, E, H, W
V: G, P, C, S, I, O, A, B, T, Y, F, H, W, Z, L, E, U, K, J, M, R, X, D, N, Q
W: K, J, I, A, R, S, L, O, X, T, H, D, V, E, C, Z, B, G, P, F, Y, M, N, Q, U
X: B, T, U, I, D, K, R, L, W, S, N, C, F, Q, J, P, Y, Z, H, E, O, V, G, A, M
Y: H, D, A, M, O, E, U, Q, P, V, L, G, K, B, I, N, X, S, Z, R, W, T, F, J, C
Z: M, K, T, R, C, B, N, G, J, U, S, O, Q, V, A, W, F, X, Y, I, L, D, P, E, H